{
    "list": [
        {
            "birthday": "2000-01-23T11:33:00",
            "fullname": "masha",
            "id": 1,
            "score": 13.43
        },
        {
            "birthday": "2002-02-11T11:33:00",
            "fullname": "madd",
            "id": 2,
            "score": 43.55
        }
    ],
    "sorted_fullname_asc": [
        2,
        1
    ]
}

